%!PS-Adobe-3.0 EPSF-3.0
%%Creator: MATLAB, The MathWorks, Inc. Version 7.11.0.584 (R2010b). Operating System: Microsoft Windows 7.
%%Title: C:\cygwin\home\Guillaume\repos\projet-ro\rapport\illustrations\obstacles-graphe-chemin.eps
%%CreationDate: 06/06/2012  22:14:11
%%DocumentNeededFonts: Helvetica
%%DocumentProcessColors: Cyan Magenta Yellow Black
%%LanguageLevel: 2
%%Pages: 1
%%BoundingBox:    87   262   507   578
%%EndComments

%%BeginProlog
% MathWorks dictionary
/MathWorks 160 dict begin
% definition operators
/bdef {bind def} bind def
/ldef {load def} bind def
/xdef {exch def} bdef
/xstore {exch store} bdef
% operator abbreviations
/c  /clip ldef
/cc /concat ldef
/cp /closepath ldef
/gr /grestore ldef
/gs /gsave ldef
/mt /moveto ldef
/np /newpath ldef
/cm /currentmatrix ldef
/sm /setmatrix ldef
/rm /rmoveto ldef
/rl /rlineto ldef
/s {show newpath} bdef
/sc {setcmykcolor} bdef
/sr /setrgbcolor ldef
/sg /setgray ldef
/w /setlinewidth ldef
/j /setlinejoin ldef
/cap /setlinecap ldef
/rc {rectclip} bdef
/rf {rectfill} bdef
% page state control
/pgsv () def
/bpage {/pgsv save def} bdef
/epage {pgsv restore} bdef
/bplot /gsave ldef
/eplot {stroke grestore} bdef
% orientation switch
/portraitMode 0 def /landscapeMode 1 def /rotateMode 2 def
% coordinate system mappings
/dpi2point 0 def
% font control
/FontSize 0 def
/FMS {/FontSize xstore findfont [FontSize 0 0 FontSize neg 0 0]
  makefont setfont} bdef
/ISOLatin1Encoding where {pop /WindowsLatin1Encoding 256 array bdef
ISOLatin1Encoding WindowsLatin1Encoding copy pop
/.notdef/.notdef/quotesinglbase/florin/quotedblbase/ellipsis/dagger
/daggerdbl/circumflex/perthousand/Scaron/guilsinglleft/OE/.notdef/.notdef
/.notdef/.notdef/quoteleft/quoteright/quotedblleft/quotedblright/bullet
/endash/emdash/tilde/trademark/scaron/guilsinglright/oe/.notdef/.notdef
/Ydieresis WindowsLatin1Encoding 128 32 getinterval astore pop}
{/WindowsLatin1Encoding StandardEncoding bdef} ifelse
/reencode {exch dup where {pop load} {pop StandardEncoding} ifelse
  exch dup 3 1 roll findfont dup length dict begin
  { 1 index /FID ne {def}{pop pop} ifelse } forall
  /Encoding exch def currentdict end definefont pop} bdef
/isroman {findfont /CharStrings get /Agrave known} bdef
/FMSR {3 1 roll 1 index dup isroman {reencode} {pop pop} ifelse
  exch FMS} bdef
/csm {1 dpi2point div -1 dpi2point div scale neg translate
 dup landscapeMode eq {pop -90 rotate}
  {rotateMode eq {90 rotate} if} ifelse} bdef
% line types: solid, dotted, dashed, dotdash
/SO { [] 0 setdash } bdef
/DO { [.5 dpi2point mul 4 dpi2point mul] 0 setdash } bdef
/DA { [6 dpi2point mul] 0 setdash } bdef
/DD { [.5 dpi2point mul 4 dpi2point mul 6 dpi2point mul 4
  dpi2point mul] 0 setdash } bdef
% macros for lines and objects
/L {lineto stroke} bdef
/MP {3 1 roll moveto 1 sub {rlineto} repeat} bdef
/AP {{rlineto} repeat} bdef
/PDlw -1 def
/W {/PDlw currentlinewidth def setlinewidth} def
/PP {closepath eofill} bdef
/DP {closepath stroke} bdef
/MR {4 -2 roll moveto dup  0 exch rlineto exch 0 rlineto
  neg 0 exch rlineto closepath} bdef
/FR {MR stroke} bdef
/PR {MR fill} bdef
/L1i {{currentfile picstr readhexstring pop} image} bdef
/tMatrix matrix def
/MakeOval {newpath tMatrix currentmatrix pop translate scale
0 0 1 0 360 arc tMatrix setmatrix} bdef
/FO {MakeOval stroke} bdef
/PO {MakeOval fill} bdef
/PD {currentlinewidth 2 div 0 360 arc fill
   PDlw -1 eq not {PDlw w /PDlw -1 def} if} def
/FA {newpath tMatrix currentmatrix pop translate scale
  0 0 1 5 -2 roll arc tMatrix setmatrix stroke} bdef
/PA {newpath tMatrix currentmatrix pop	translate 0 0 moveto scale
  0 0 1 5 -2 roll arc closepath tMatrix setmatrix fill} bdef
/FAn {newpath tMatrix currentmatrix pop translate scale
  0 0 1 5 -2 roll arcn tMatrix setmatrix stroke} bdef
/PAn {newpath tMatrix currentmatrix pop translate 0 0 moveto scale
  0 0 1 5 -2 roll arcn closepath tMatrix setmatrix fill} bdef
/vradius 0 def /hradius 0 def /lry 0 def
/lrx 0 def /uly 0 def /ulx 0 def /rad 0 def
/MRR {/vradius xdef /hradius xdef /lry xdef /lrx xdef /uly xdef
  /ulx xdef newpath tMatrix currentmatrix pop ulx hradius add uly
  vradius add translate hradius vradius scale 0 0 1 180 270 arc 
  tMatrix setmatrix lrx hradius sub uly vradius add translate
  hradius vradius scale 0 0 1 270 360 arc tMatrix setmatrix
  lrx hradius sub lry vradius sub translate hradius vradius scale
  0 0 1 0 90 arc tMatrix setmatrix ulx hradius add lry vradius sub
  translate hradius vradius scale 0 0 1 90 180 arc tMatrix setmatrix
  closepath} bdef
/FRR {MRR stroke } bdef
/PRR {MRR fill } bdef
/MlrRR {/lry xdef /lrx xdef /uly xdef /ulx xdef /rad lry uly sub 2 div def
  newpath tMatrix currentmatrix pop ulx rad add uly rad add translate
  rad rad scale 0 0 1 90 270 arc tMatrix setmatrix lrx rad sub lry rad
  sub translate rad rad scale 0 0 1 270 90 arc tMatrix setmatrix
  closepath} bdef
/FlrRR {MlrRR stroke } bdef
/PlrRR {MlrRR fill } bdef
/MtbRR {/lry xdef /lrx xdef /uly xdef /ulx xdef /rad lrx ulx sub 2 div def
  newpath tMatrix currentmatrix pop ulx rad add uly rad add translate
  rad rad scale 0 0 1 180 360 arc tMatrix setmatrix lrx rad sub lry rad
  sub translate rad rad scale 0 0 1 0 180 arc tMatrix setmatrix
  closepath} bdef
/FtbRR {MtbRR stroke } bdef
/PtbRR {MtbRR fill } bdef
/stri 6 array def /dtri 6 array def
/smat 6 array def /dmat 6 array def
/tmat1 6 array def /tmat2 6 array def /dif 3 array def
/asub {/ind2 exch def /ind1 exch def dup dup
  ind1 get exch ind2 get sub exch } bdef
/tri_to_matrix {
  2 0 asub 3 1 asub 4 0 asub 5 1 asub
  dup 0 get exch 1 get 7 -1 roll astore } bdef
/compute_transform {
  dmat dtri tri_to_matrix tmat1 invertmatrix 
  smat stri tri_to_matrix tmat2 concatmatrix } bdef
/ds {stri astore pop} bdef
/dt {dtri astore pop} bdef
/db {2 copy /cols xdef /rows xdef mul dup 3 mul string
  currentfile 
  3 index 0 eq {/ASCIIHexDecode filter}
  {/ASCII85Decode filter 3 index 2 eq {/RunLengthDecode filter} if }
  ifelse exch readstring pop
  dup 0 3 index getinterval /rbmap xdef
  dup 2 index dup getinterval /gbmap xdef
  1 index dup 2 mul exch getinterval /bbmap xdef pop pop}bdef
/it {gs np dtri aload pop moveto lineto lineto cp c
  cols rows 8 compute_transform 
  rbmap gbmap bbmap true 3 colorimage gr}bdef
/il {newpath moveto lineto stroke}bdef
currentdict end def
%%EndProlog

%%BeginSetup
MathWorks begin

0 cap

end
%%EndSetup

%%Page: 1 1
%%BeginPageSetup
%%PageBoundingBox:    87   262   507   578
MathWorks begin
bpage
%%EndPageSetup

%%BeginObject: obj1
bplot

/dpi2point 12 def
portraitMode 1044 6936 csm

    0     0  5045  3782 rc
85 dict begin %Colortable dictionary
/c0 { 0.000000 0.000000 0.000000 sr} bdef
/c1 { 1.000000 1.000000 1.000000 sr} bdef
/c2 { 0.900000 0.000000 0.000000 sr} bdef
/c3 { 0.000000 0.820000 0.000000 sr} bdef
/c4 { 0.000000 0.000000 0.800000 sr} bdef
/c5 { 0.910000 0.820000 0.320000 sr} bdef
/c6 { 1.000000 0.260000 0.820000 sr} bdef
/c7 { 0.000000 0.820000 0.820000 sr} bdef
c0
1 j
1 sg
   0    0 5046 3783 rf
6 w
0 -3083 3907 0 0 3083 657 283 4 MP
PP
-3907 0 0 -3083 3907 0 0 3083 657 283 5 MP stroke
4 w
DO
SO
6 w
0 sg
 657 3366 mt 4564 3366 L
 657  283 mt  657 3366 L
 691 3366 mt  691 3326 L
%%IncludeResource: font Helvetica
/Helvetica /WindowsLatin1Encoding 120 FMSR

 658 3511 mt 
(0) s
1232 3366 mt 1232 3326 L
1166 3511 mt 
(10) s
1772 3366 mt 1772 3326 L
1706 3511 mt 
(20) s
2313 3366 mt 2313 3326 L
2247 3511 mt 
(30) s
2854 3366 mt 2854 3326 L
2788 3511 mt 
(40) s
3395 3366 mt 3395 3326 L
3329 3511 mt 
(50) s
3935 3366 mt 3935 3326 L
3869 3511 mt 
(60) s
4476 3366 mt 4476 3326 L
4410 3511 mt 
(70) s
 657  446 mt  696  446 L
 489  490 mt 
(10) s
 657  716 mt  696  716 L
 489  760 mt 
(15) s
 657  986 mt  696  986 L
 489 1030 mt 
(20) s
 657 1257 mt  696 1257 L
 489 1301 mt 
(25) s
 657 1527 mt  696 1527 L
 489 1571 mt 
(30) s
 657 1797 mt  696 1797 L
 489 1841 mt 
(35) s
 657 2068 mt  696 2068 L
 489 2112 mt 
(40) s
 657 2338 mt  696 2338 L
 489 2382 mt 
(45) s
 657 2609 mt  696 2609 L
 489 2653 mt 
(50) s
 657 2879 mt  696 2879 L
 489 2923 mt 
(55) s
 657 3149 mt  696 3149 L
 489 3193 mt 
(60) s
gs 657 284 3908 3083 rc
36 w
217 -216 1069 3311 2 MP stroke
0 -216 1286 3095 2 MP stroke
324 108 1286 3095 2 MP stroke
162 0 1610 3203 2 MP stroke
163 -270 1772 3203 2 MP stroke
109 0 1772 3203 2 MP stroke
109 0 1772 3203 2 MP stroke
378 163 1881 3203 2 MP stroke
378 163 1881 3203 2 MP stroke
1730 -55 2259 3366 2 MP stroke
1730 -55 2259 3366 2 MP stroke
163 -270 3989 3311 2 MP stroke
163 -270 3989 3311 2 MP stroke
-55 -487 4152 3041 2 MP stroke
-55 -487 4152 3041 2 MP stroke
-54 -108 4097 2554 2 MP stroke
-54 -108 4097 2554 2 MP stroke
-108 -54 4043 2446 2 MP stroke
0 -108 4043 2446 2 MP stroke
-108 -54 4043 2446 2 MP stroke
0 -108 4043 2446 2 MP stroke
-54 -324 4043 2338 2 MP stroke
-54 -324 4043 2338 2 MP stroke
-54 -108 3989 2014 2 MP stroke
-54 -108 3989 2014 2 MP stroke
-649 -54 3935 1906 2 MP stroke
0 -109 3935 1906 2 MP stroke
-649 -54 3935 1906 2 MP stroke
0 -109 3935 1906 2 MP stroke
-162 -325 3286 1852 2 MP stroke
-54 108 3286 1852 2 MP stroke
54 -162 3935 1797 2 MP stroke
-162 -325 3286 1852 2 MP stroke
-54 108 3286 1852 2 MP stroke
54 -162 3935 1797 2 MP stroke
-270 -541 3124 1527 2 MP stroke
-162 270 3232 1960 2 MP stroke
54 -811 3989 1635 2 MP stroke
-270 -541 3124 1527 2 MP stroke
-162 270 3232 1960 2 MP stroke
54 -811 3989 1635 2 MP stroke
-433 217 2854 986 2 MP stroke
54 -324 2854 986 2 MP stroke
-378 162 3070 2230 2 MP stroke
162 162 3070 2230 2 MP stroke
-162 -324 4043 824 2 MP stroke
-433 217 2854 986 2 MP stroke
54 -324 2854 986 2 MP stroke
-378 162 3070 2230 2 MP stroke
162 162 3070 2230 2 MP stroke
-162 -324 4043 824 2 MP stroke
-162 -162 2908 662 2 MP stroke
541 -270 2908 662 2 MP stroke
-487 0 2692 2392 2 MP stroke
-108 -54 3881 500 2 MP stroke
216 -216 3881 500 2 MP stroke
-162 -162 2908 662 2 MP stroke
541 -270 2908 662 2 MP stroke
-487 0 2692 2392 2 MP stroke
-108 -54 3881 500 2 MP stroke
216 -216 3881 500 2 MP stroke
-487 -216 2746 500 2 MP stroke
324 54 3449 392 2 MP stroke
-108 -108 2205 2392 2 MP stroke
-108 54 2205 2392 2 MP stroke
-487 -216 2746 500 2 MP stroke
-108 -108 2205 2392 2 MP stroke
-108 54 2205 2392 2 MP stroke
-1027 54 2259 284 2 MP stroke
-1027 54 2259 284 2 MP stroke
-163 270 1232 338 2 MP stroke
-163 270 1232 338 2 MP stroke
55 487 1069 608 2 MP stroke
55 487 1069 608 2 MP stroke
162 324 1124 1095 2 MP stroke
162 324 1124 1095 2 MP stroke
0 108 1286 1419 2 MP stroke
0 108 1286 1419 2 MP stroke
-108 325 1286 1527 2 MP stroke
108 -54 1286 1527 2 MP stroke
-108 325 1286 1527 2 MP stroke
108 -54 1286 1527 2 MP stroke
378 0 1394 1473 2 MP stroke
378 0 1394 1473 2 MP stroke
325 -216 1772 1473 2 MP stroke
163 216 1772 1473 2 MP stroke
325 -216 1772 1473 2 MP stroke
163 216 1772 1473 2 MP stroke
/c8 { 1.000000 0.000000 0.000000 sr} bdef
c8
217 -216 1069 3311 2 MP stroke
324 108 1286 3095 2 MP stroke
162 0 1610 3203 2 MP stroke
109 0 1772 3203 2 MP stroke
378 163 1881 3203 2 MP stroke
1730 -55 2259 3366 2 MP stroke
163 -270 3989 3311 2 MP stroke
-55 -487 4152 3041 2 MP stroke
-54 -108 4097 2554 2 MP stroke
0 -108 4043 2446 2 MP stroke
-54 -324 4043 2338 2 MP stroke
-54 -108 3989 2014 2 MP stroke
0 -109 3935 1906 2 MP stroke
54 -162 3935 1797 2 MP stroke
54 -811 3989 1635 2 MP stroke
-162 -324 4043 824 2 MP stroke
216 -216 3881 500 2 MP stroke
6 w
gr

c8

end %%Color Dict

eplot
%%EndObject

epage
end

showpage

%%Trailer
%%EOF
